[
  {
    "name": "Django",
    "version": "1.4.12"
  },
  {
    "name": "Markdown",
    "version": "2.4"
  },
  {
    "name": "South",
    "version": "0.8.4"
  },
  {
    "name": "bleach",
    "version": "1.4"
  },
  {
    "name": "coverage",
    "version": "4.4.2"
  },
  {
    "name": "django-debug-toolbar",
    "version": "0.11"
  },
  {
    "name": "django-nose",
    "version": "1.2"
  },
  {
    "name": "django-registration",
    "version": "0.8"
  },
  {
    "name": "django-secure",
    "version": "1.0"
  },
  {
    "name": "docutils",
    "version": "0.11"
  },
  {
    "name": "html5lib",
    "version": "1.0.1"
  },
  {
    "name": "nose",
    "version": "1.3.7"
  },
  {
    "name": "pip",
    "version": "9.0.1"
  },
  {
    "name": "pipdeptree",
    "version": "0.10.1"
  },
  {
    "name": "psycopg2",
    "version": "2.7.3.2"
  },
  {
    "name": "setuptools",
    "version": "38.2.4"
  },
  {
    "name": "six",
    "version": "1.11.0"
  },
  {
    "name": "smartypants",
    "version": "1.8.3"
  },
  {
    "name": "sqlparse",
    "version": "0.2.4"
  },
  {
    "name": "virtualenv",
    "version": "15.1.0"
  },
  {
    "name": "webencodings",
    "version": "0.5.1"
  },
  {
    "name": "wheel",
    "version": "0.30.0"
  }
]